{
  "User": "Jarvis",
  "Url": "http://47.57.5.75:28888",
  "RelaunchUrl": "http://47.57.5.75:27778",
  "Hosts": {
    "OKC": "hkc4",
    "HB": "tkc12",
    "BNB": "tkc25",
    "BNBF1": "tka1",
    "BNBF2": "tka8",
    "LBF": "tkc1",
    "EXF": "tka1",
    "HCF": "sgc1",
    "CWF": "hka1",
    "OKCF": "hkc2",
    "WXF": "tkc1",
    "DCF": "sgc1",
    "XTF": "sgc1",
    "GTF": "tka3",
    "GT": "tka4",
    "KCF1": "tka5",
    "KCF2": "tka6",
    "KCS": "tka6",
    "BGF": "tkc1",
    "BGS": "tkc1",
    "MCF": "tka1",
    "MCS": "tka1"
  },
  "Token": "eyJhbGciOiJIUzI1NiIsInR5cCI6IkpXVCJ9.eyJpZCI6OCwiaXNzIjoiSmFydmlzIiwiZXhwIjoxNTg5MzUxNjIzMTI0LCJwd2QiOiJiNGU5Yzc3MTY4OWFmMDJiNmQxNzZjMjJlZWUxNmM5MSIsInBlcm1pc3Npb24iOltdLCJpYXQiOjE1ODkzNTE1NjN9.5c4AW5jhKe0QdC48Oc3EH-nxVq6iuZE-3Va9Ge3Z2Kg"
}